DeepScanScape: Deep Mutational Landscape Analysis • DeepScanScape
…
Nucleoprotein

The data from this study is stored in a custom format, with each row representing a position in the protein and columns for the percentage observed in the post selection library for each amino acid.

df_np <- read.delim(file = system.file("extdata", "doud_2015_np.csv", package = "deepscanscape"), sep = " ")
tibble::as_tibble(df_np)
#> # A tibble: 498 x 23
#>    POSITION WT    SITE_ENTROPY    PI_A    PI_C    PI_D    PI_E    PI_F    PI_G
#>       <int> <chr>        <dbl>   <dbl>   <dbl>   <dbl>   <dbl>   <dbl>   <dbl>
#>  1        1 M             3.97 0.0417  0.0411  0.0452  0.0412  0.0398  0.0365 
#>  2        2 A             1.78 0.716   0.00725 0.00540 0.0260  0.00778 0.0118 
#>  3        3 S             3.84 0.118   0.0166  0.00580 0.00620 0.0931  0.0159 
#>  4        4 Q             3.79 0.0261  0.0288  0.00488 0.0387  0.159   0.00851
#>  5        5 G             3.39 0.122   0.0807  0.0117  0.00760 0.00610 0.245  
#>  6        6 T             1.50 0.0450  0.00741 0.00656 0.00604 0.00596 0.00416
#>  7        7 K             1.70 0.00292 0.0116  0.00800 0.0406  0.00620 0.00346
#>  8        8 R             1.90 0.00638 0.0180  0.00794 0.00620 0.00673 0.0173 
#>  9        9 S             3.40 0.121   0.0134  0.00351 0.00706 0.0542  0.00822
#> 10       10 Y             3.87 0.0781  0.0330  0.0414  0.0262  0.0529  0.0112 
#> # … with 488 more rows, and 14 more variables: PI_H <dbl>, PI_I <dbl>,
#> #   PI_K <dbl>, PI_L <dbl>, PI_M <dbl>, PI_N <dbl>, PI_P <dbl>, PI_Q <dbl>,
#> #   PI_R <dbl>, PI_S <dbl>, PI_T <dbl>, PI_V <dbl>, PI_W <dbl>, PI_Y <dbl>
…
